[{"href":"https://api.spotify.com/v1/search?query=track%3A%22Toulouse%22&offset=0&limit=1&type=track&market=US","items":[{"album":{"album_type":"single","available_markets":["AD","AR","AT","BE","BG","BO","BR","CA","CH","CL","CO","CR","CY","CZ","DE","DO","EC","EE","ES","FR","GB","GR","GT","HK","HN","HU","IE","IS","IT","LI","LT","LU","LV","MC","MT","MX","MY","NI","NL","PA","PE","PH","PL","PT","PY","RO","SG","SI","SK","SV","TR","TW","US","UY"],"external_urls":{"spotify":"https://open.spotify.com/album/6FypcAZhJmCJJB8yEajt71"},"href":"https://api.spotify.com/v1/albums/6FypcAZhJmCJJB8yEajt71","id":"6FypcAZhJmCJJB8yEajt71","images":[{"height":640,"url":"https://i.scdn.co/image/23ebbaf0178cb6a6e694f93bf3a987cebf2c4bc5","width":640},{"height":300,"url":"https://i.scdn.co/image/b823343e10d6f652e428d29e5d93b9355ca77577","width":300},{"height":64,"url":"https://i.scdn.co/image/bd02d7a5008b8b9f365ad1c48c5c40f8a86b751a","width":64}],"name":"Toulouse","type":"album","uri":"spotify:album:6FypcAZhJmCJJB8yEajt71"},"artists":[{"external_urls":{"spotify":"https://open.spotify.com/artist/5ChF3i92IPZHduM7jN3dpg"},"href":"https://api.spotify.com/v1/artists/5ChF3i92IPZHduM7jN3dpg","id":"5ChF3i92IPZHduM7jN3dpg","name":"Nicky Romero","type":"artist","uri":"spotify:artist:5ChF3i92IPZHduM7jN3dpg"}],"available_markets":["AD","AR","AT","BE","BG","BO","BR","CA","CH","CL","CO","CR","CY","CZ","DE","DO","EC","EE","ES","FR","GB","GR","GT","HK","HN","HU","IE","IS","IT","LI","LT","LU","LV","MC","MT","MX","MY","NI","NL","PA","PE","PH","PL","PT","PY","RO","SG","SI","SK","SV","TR","TW","US","UY"],"disc_number":1,"duration_ms":365625,"explicit":false,"external_ids":{"isrc":"NLC281112345"},"external_urls":{"spotify":"https://open.spotify.com/track/7sCIdsYQ8Nxoj6TjB1Eb7P"},"href":"https://api.spotify.com/v1/tracks/7sCIdsYQ8Nxoj6TjB1Eb7P","id":"7sCIdsYQ8Nxoj6TjB1Eb7P","name":"Toulouse - Original Mix","popularity":64,"preview_url":"https://p.scdn.co/mp3-preview/23031027235c6aa1f9c525ad952b99e659554f61","track_number":1,"type":"track","uri":"spotify:track:7sCIdsYQ8Nxoj6TjB1Eb7P"}],"limit":1,"next":"https://api.spotify.com/v1/search?query=track%3A%22Toulouse%22&offset=1&limit=1&type=track&market=US","offset":0,"previous":null,"total":237,"artist_location":{"location":"Toulouse","latitude":"43.60426","longitude":"1.44367"}},{"href":"https://api.spotify.com/v1/search?query=track%3A%22Road+to+Rouen%2C%22&offset=0&limit=1&type=track&market=US","items":[{"album":{"album_type":"album","available_markets":["AD","AR","AT","AU","BE","BG","BO","BR","CA","CH","CL","CO","CR","CY","CZ","DE","DK","DO","EC","EE","ES","FI","FR","GB","GR","GT","HK","HN","HU","IE","IS","IT","LI","LT","LU","LV","MC","MT","MX","MY","NI","NL","NO","NZ","PA","PE","PH","PL","PT","PY","RO","SE","SG","SI","SK","SV","TR","TW","US","UY"],"external_urls":{"spotify":"https://open.spotify.com/album/7HBzTTfJhW9sis8yvgxmL6"},"href":"https://api.spotify.com/v1/albums/7HBzTTfJhW9sis8yvgxmL6","id":"7HBzTTfJhW9sis8yvgxmL6","images":[{"height":640,"url":"https://i.scdn.co/image/1ae5547b4631ead36d755618f59e8c0df141cc71","width":640},{"height":300,"url":"https://i.scdn.co/image/1c12ca95c1b375b619ffbe2728095ab164de5c6a","width":300},{"height":64,"url":"https://i.scdn.co/image/589a1bb50b201adbe5bfa75e5f60a27101300523","width":64}],"name":"Road To Rouen","type":"album","uri":"spotify:album:7HBzTTfJhW9sis8yvgxmL6"},"artists":[{"external_urls":{"spotify":"https://open.spotify.com/artist/0sHeX8oQ6o7xic3wMf4NBU"},"href":"https://api.spotify.com/v1/artists/0sHeX8oQ6o7xic3wMf4NBU","id":"0sHeX8oQ6o7xic3wMf4NBU","name":"Supergrass","type":"artist","uri":"spotify:artist:0sHeX8oQ6o7xic3wMf4NBU"}],"available_markets":["AD","AR","AT","AU","BE","BG","BO","BR","CA","CH","CL","CO","CR","CY","CZ","DE","DK","DO","EC","EE","ES","FI","FR","GB","GR","GT","HK","HN","HU","IE","IS","IT","LI","LT","LU","LV","MC","MT","MX","MY","NI","NL","NO","NZ","PA","PE","PH","PL","PT","PY","RO","SE","SG","SI","SK","SV","TR","TW","US","UY"],"disc_number":1,"duration_ms":231453,"explicit":false,"external_ids":{"isrc":"GBAYE0501080"},"external_urls":{"spotify":"https://open.spotify.com/track/0Vte20nDgFbeiUjWe6AhDY"},"href":"https://api.spotify.com/v1/tracks/0Vte20nDgFbeiUjWe6AhDY","id":"0Vte20nDgFbeiUjWe6AhDY","name":"Road To Rouen","popularity":34,"preview_url":"https://p.scdn.co/mp3-preview/55b0f6f7af7003feb6b76f1fa217494f20e68c80","track_number":6,"type":"track","uri":"spotify:track:0Vte20nDgFbeiUjWe6AhDY"}],"limit":1,"next":null,"offset":0,"previous":null,"total":1,"artist_location":{"location":"Rouen","latitude":"49.46942","longitude":"1.05214"}},{"href":"https://api.spotify.com/v1/search?query=track%3A%22Un+dimanche+%C3%A0+Strasbourg%2C%22&offset=0&limit=1&type=track&market=US","items":[],"limit":1,"next":null,"offset":0,"previous":null,"total":0,"artist_location":{"location":"Strasbourg","latitude":"48.58342","longitude":"7.74296"}},{"href":"https://api.spotify.com/v1/search?query=track%3A%22Toulouse%2C%22&offset=0&limit=1&type=track&market=US","items":[{"album":{"album_type":"single","available_markets":["AD","AR","AT","BE","BG","BO","BR","CA","CH","CL","CO","CR","CY","CZ","DE","DO","EC","EE","ES","FR","GB","GR","GT","HK","HN","HU","IE","IS","IT","LI","LT","LU","LV","MC","MT","MX","MY","NI","NL","PA","PE","PH","PL","PT","PY","RO","SG","SI","SK","SV","TR","TW","US","UY"],"external_urls":{"spotify":"https://open.spotify.com/album/6FypcAZhJmCJJB8yEajt71"},"href":"https://api.spotify.com/v1/albums/6FypcAZhJmCJJB8yEajt71","id":"6FypcAZhJmCJJB8yEajt71","images":[{"height":640,"url":"https://i.scdn.co/image/23ebbaf0178cb6a6e694f93bf3a987cebf2c4bc5","width":640},{"height":300,"url":"https://i.scdn.co/image/b823343e10d6f652e428d29e5d93b9355ca77577","width":300},{"height":64,"url":"https://i.scdn.co/image/bd02d7a5008b8b9f365ad1c48c5c40f8a86b751a","width":64}],"name":"Toulouse","type":"album","uri":"spotify:album:6FypcAZhJmCJJB8yEajt71"},"artists":[{"external_urls":{"spotify":"https://open.spotify.com/artist/5ChF3i92IPZHduM7jN3dpg"},"href":"https://api.spotify.com/v1/artists/5ChF3i92IPZHduM7jN3dpg","id":"5ChF3i92IPZHduM7jN3dpg","name":"Nicky Romero","type":"artist","uri":"spotify:artist:5ChF3i92IPZHduM7jN3dpg"}],"available_markets":["AD","AR","AT","BE","BG","BO","BR","CA","CH","CL","CO","CR","CY","CZ","DE","DO","EC","EE","ES","FR","GB","GR","GT","HK","HN","HU","IE","IS","IT","LI","LT","LU","LV","MC","MT","MX","MY","NI","NL","PA","PE","PH","PL","PT","PY","RO","SG","SI","SK","SV","TR","TW","US","UY"],"disc_number":1,"duration_ms":365625,"explicit":false,"external_ids":{"isrc":"NLC281112345"},"external_urls":{"spotify":"https://open.spotify.com/track/7sCIdsYQ8Nxoj6TjB1Eb7P"},"href":"https://api.spotify.com/v1/tracks/7sCIdsYQ8Nxoj6TjB1Eb7P","id":"7sCIdsYQ8Nxoj6TjB1Eb7P","name":"Toulouse - Original Mix","popularity":64,"preview_url":"https://p.scdn.co/mp3-preview/23031027235c6aa1f9c525ad952b99e659554f61","track_number":1,"type":"track","uri":"spotify:track:7sCIdsYQ8Nxoj6TjB1Eb7P"}],"limit":1,"next":"https://api.spotify.com/v1/search?query=track%3A%22Toulouse%2C%22&offset=1&limit=1&type=track&market=US","offset":0,"previous":null,"total":237,"artist_location":{"location":"Toulouse","latitude":"43.60426","longitude":"1.44367"}},{"href":"https://api.spotify.com/v1/search?query=track%3A%22Strasbourg%2C%22&offset=0&limit=1&type=track&market=US","items":[{"album":{"album_type":"album","available_markets":["CA","US"],"external_urls":{"spotify":"https://open.spotify.com/album/4vuijqNCK71JTiACBmdCTo"},"href":"https://api.spotify.com/v1/albums/4vuijqNCK71JTiACBmdCTo","id":"4vuijqNCK71JTiACBmdCTo","images":[{"height":640,"url":"https://i.scdn.co/image/bd941ad121b97ee675bf59fa197ecc68d08490c4","width":640},{"height":300,"url":"https://i.scdn.co/image/55b3e4620832b888f282d8e11a26e5ad0f3d3245","width":300},{"height":64,"url":"https://i.scdn.co/image/784cfce245bc8d46d7aab9c8223f1cf1493a6a95","width":64}],"name":"Earfood","type":"album","uri":"spotify:album:4vuijqNCK71JTiACBmdCTo"},"artists":[{"external_urls":{"spotify":"https://open.spotify.com/artist/49zXTngyUTielHTbbH5YKs"},"href":"https://api.spotify.com/v1/artists/49zXTngyUTielHTbbH5YKs","id":"49zXTngyUTielHTbbH5YKs","name":"Roy Hargrove","type":"artist","uri":"spotify:artist:49zXTngyUTielHTbbH5YKs"}],"available_markets":["CA","US"],"disc_number":1,"duration_ms":278626,"explicit":false,"external_ids":{"isrc":"GBUM70805366"},"external_urls":{"spotify":"https://open.spotify.com/track/62VWmsNoDmqT0Mj9oHHFVh"},"href":"https://api.spotify.com/v1/tracks/62VWmsNoDmqT0Mj9oHHFVh","id":"62VWmsNoDmqT0Mj9oHHFVh","name":"Strasbourg / St. Denis","popularity":38,"preview_url":"https://p.scdn.co/mp3-preview/4d6d127d0f689fa33551e2da48c2a6fcf200173c","track_number":3,"type":"track","uri":"spotify:track:62VWmsNoDmqT0Mj9oHHFVh"}],"limit":1,"next":"https://api.spotify.com/v1/search?query=track%3A%22Strasbourg%2C%22&offset=1&limit=1&type=track&market=US","offset":0,"previous":null,"total":82,"artist_location":{"location":"Strasbourg","latitude":"48.58342","longitude":"7.74296"}},{"href":"https://api.spotify.com/v1/search?query=track%3A%22Good%22&offset=0&limit=1&type=track&market=US","items":[{"album":{"album_type":"album","available_markets":["AD","AR","AT","AU","BE","BG","BO","BR","CA","CH","CL","CO","CR","CY","CZ","DE","DK","DO","EC","EE","ES","FI","FR","GB","GR","GT","HK","HN","HU","IE","IS","IT","LI","LT","LU","LV","MC","MT","MX","MY","NI","NL","NO","NZ","PA","PE","PH","PL","PT","PY","RO","SE","SG","SI","SK","SV","TR","TW","US","UY"],"external_urls":{"spotify":"https://open.spotify.com/album/5W98Ab4VvQEuFEE4TIe5fE"},"href":"https://api.spotify.com/v1/albums/5W98Ab4VvQEuFEE4TIe5fE","id":"5W98Ab4VvQEuFEE4TIe5fE","images":[{"height":640,"url":"https://i.scdn.co/image/150a5dec77a26ad85747525475e734b7d3962ffc","width":640},{"height":300,"url":"https://i.scdn.co/image/9e9872320e69846dcefd936efd704e5e8f5a0bc7","width":300},{"height":64,"url":"https://i.scdn.co/image/cc0863adfd69a563320c00ba7122a82668720041","width":64}],"name":"Title (Deluxe)","type":"album","uri":"spotify:album:5W98Ab4VvQEuFEE4TIe5fE"},"artists":[{"external_urls":{"spotify":"https://open.spotify.com/artist/6JL8zeS1NmiOftqZTRgdTz"},"href":"https://api.spotify.com/v1/artists/6JL8zeS1NmiOftqZTRgdTz","id":"6JL8zeS1NmiOftqZTRgdTz","name":"Meghan Trainor","type":"artist","uri":"spotify:artist:6JL8zeS1NmiOftqZTRgdTz"}],"available_markets":["AD","AR","AT","AU","BE","BG","BO","BR","CA","CH","CL","CO","CR","CY","CZ","DE","DK","DO","EC","EE","ES","FI","FR","GB","GR","GT","HK","HN","HU","IE","IS","IT","LI","LT","LU","LV","MC","MT","MX","MY","NI","NL","NO","NZ","PA","PE","PH","PL","PT","PY","RO","SE","SG","SI","SK","SV","TR","TW","US","UY"],"disc_number":1,"duration_ms":216280,"explicit":false,"external_ids":{"isrc":"USSM11408378"},"external_urls":{"spotify":"https://open.spotify.com/track/5lOK3NCvbvgK6cohyTTQ4Z"},"href":"https://api.spotify.com/v1/tracks/5lOK3NCvbvgK6cohyTTQ4Z","id":"5lOK3NCvbvgK6cohyTTQ4Z","name":"No Good For You","popularity":84,"preview_url":"https://p.scdn.co/mp3-preview/5ebd7c8bd1a8e8149a1928a61f1b21f7a61d67a5","track_number":12,"type":"track","uri":"spotify:track:5lOK3NCvbvgK6cohyTTQ4Z"}],"limit":1,"next":"https://api.spotify.com/v1/search?query=track%3A%22Good%22&offset=1&limit=1&type=track&market=US","offset":0,"previous":null,"total":131367,"artist_location":{"location":"Toulouse","latitude":"43.60426","longitude":"1.44367"}}]
